{
    "123": "fork",
    "296": "t-shirt",
    "194": "necklace",
    "314": "tornado",
    "95": "dresser",
    "176": "map",
    "119": "floor lamp",
    "8": "arm",
    "241": "roller coaster",
    "172": "lipstick",
    "278": "stairs",
    "68": "chandelier",
    "266": "snorkel",
    "128": "giraffe",
    "207": "paper clip",
    "327": "violin",
    "175": "mailbox",
    "333": "windmill",
    "258": "sink",
    "227": "popsicle",
    "307": "tiger",
    "164": "laptop",
    "112": "fire hydrant",
    "106": "eyeglasses",
    "25": "bee",
    "109": "feather",
    "270": "sock",
    "218": "picture frame",
    "186": "motorbike",
    "256": "shorts",
    "154": "hurricane",
    "338": "zebra",
    "143": "hexagon",
    "299": "teddy-bear",
    "14": "barn",
    "162": "ladder",
    "141": "helicopter",
    "50": "cake",
    "276": "squiggle",
    "130": "golf club",
    "224": "police car",
    "208": "parachute",
    "160": "keyboard",
    "337": "yoga",
    "10": "axe",
    "282": "stethoscope",
    "247": "school bus",
    "121": "flying saucer",
    "334": "wine bottle",
    "72": "clock",
    "140": "hedgehog",
    "246": "saxophone",
    "261": "skyscraper",
    "27": "bench",
    "182": "microwave",
    "65": "cell phone",
    "269": "soccer ball",
    "47": "bush",
    "318": "tree",
    "230": "power outlet",
    "110": "fence",
    "288": "string bean",
    "63": "cat",
    "196": "ocean",
    "12": "banana",
    "237": "rake",
    "214": "pencil",
    "242": "rollerskates",
    "295": "sword",
    "77": "cookie",
    "294": "swing set",
    "291": "sun",
    "287": "streetlight",
    "151": "hourglass",
    "179": "megaphone",
    "142": "helmet",
    "187": "mountain",
    "80": "cow",
    "302": "tennis racquet",
    "191": "mug",
    "52": "calendar",
    "284": "stop sign",
    "308": "toaster",
    "134": "hamburger",
    "144": "hockey puck",
    "171": "lion",
    "250": "screwdriver",
    "238": "remote control",
    "181": "microphone",
    "193": "nail",
    "229": "potato",
    "323": "umbrella",
    "197": "octagon",
    "152": "house",
    "184": "moon",
    "306": "The Mona Lisa",
    "135": "hammer",
    "73": "cloud",
    "168": "lighthouse",
    "211": "peanut",
    "41": "bridge",
    "85": "cruise ship",
    "213": "peas",
    "66": "cello",
    "195": "nose",
    "120": "flower",
    "239": "rhinoceros",
    "93": "door",
    "215": "penguin",
    "221": "pineapple",
    "150": "hot tub",
    "231": "purse",
    "255": "shoe",
    "335": "wine glass",
    "320": "trombone",
    "155": "ice cream",
    "115": "fish",
    "145": "hockey stick",
    "53": "camel",
    "98": "duck",
    "126": "garden",
    "30": "bird",
    "91": "dolphin",
    "97": "drums",
    "233": "raccoon",
    "69": "church",
    "24": "bed",
    "87": "diamond",
    "0": "airplane",
    "62": "castle",
    "81": "crab",
    "117": "flashlight",
    "190": "mouth",
    "328": "washing machine",
    "88": "dishwasher",
    "107": "face",
    "139": "headphones",
    "159": "key",
    "17": "basket",
    "5": "ant",
    "45": "bulldozer",
    "124": "frog",
    "84": "crown",
    "326": "vase",
    "173": "lobster",
    "169": "lightning",
    "324": "underwear",
    "232": "rabbit",
    "33": "blueberry",
    "202": "paint can",
    "59": "canoe",
    "219": "pig",
    "325": "van",
    "103": "envelope",
    "303": "tent",
    "43": "broom",
    "48": "butterfly",
    "46": "bus",
    "38": "bracelet",
    "203": "paintbrush",
    "280": "steak",
    "132": "grass",
    "105": "eye",
    "223": "pliers",
    "83": "crocodile",
    "304": "The Eiffel Tower",
    "76": "computer",
    "217": "pickup truck",
    "118": "flip flops",
    "290": "suitcase",
    "292": "swan",
    "312": "toothbrush",
    "286": "strawberry",
    "322": "trumpet",
    "7": "apple",
    "329": "watermelon",
    "259": "skateboard",
    "75": "compass",
    "67": "chair",
    "331": "whale",
    "301": "television",
    "157": "jail",
    "57": "candle",
    "189": "moustache",
    "271": "speedboat",
    "275": "square",
    "78": "cooler",
    "122": "foot",
    "293": "sweater",
    "274": "spreadsheet",
    "156": "jacket",
    "244": "sandwich",
    "225": "pond",
    "316": "traffic light",
    "32": "blackberry",
    "11": "backpack",
    "6": "anvil",
    "222": "pizza",
    "113": "fireplace",
    "89": "diving board",
    "18": "basketball",
    "51": "calculator",
    "235": "rain",
    "9": "asparagus",
    "212": "pear",
    "216": "piano",
    "55": "camouflage",
    "21": "beach",
    "315": "tractor",
    "178": "matches",
    "158": "kangaroo",
    "100": "ear",
    "131": "grapes",
    "183": "monkey",
    "209": "parrot",
    "198": "octopus",
    "136": "hand",
    "92": "donut",
    "23": "beard",
    "60": "car",
    "20": "bathtub",
    "192": "mushroom",
    "26": "belt",
    "309": "toe",
    "94": "dragon",
    "204": "palm tree",
    "273": "spoon",
    "108": "fan",
    "205": "panda",
    "249": "scorpion",
    "210": "passport",
    "311": "tooth",
    "61": "carrot",
    "330": "waterslide",
    "28": "bicycle",
    "289": "submarine",
    "29": "binoculars",
    "236": "rainbow",
    "147": "hospital",
    "101": "elbow",
    "251": "sea turtle",
    "305": "The Great Wall of China",
    "277": "squirrel",
    "180": "mermaid",
    "146": "horse",
    "265": "snake",
    "245": "saw",
    "226": "pool",
    "34": "book",
    "339": "zigzag",
    "31": "birthday cake",
    "272": "spider",
    "263": "smiley face",
    "321": "truck",
    "49": "cactus",
    "163": "lantern",
    "16": "baseball bat",
    "257": "shovel",
    "114": "firetruck",
    "137": "harp",
    "313": "toothpaste",
    "127": "garden hose",
    "64": "ceiling fan",
    "39": "brain",
    "310": "toilet",
    "170": "line",
    "240": "river",
    "58": "cannon",
    "268": "snowman",
    "167": "light bulb",
    "283": "stitches",
    "228": "postcard",
    "206": "pants",
    "319": "triangle",
    "149": "hot dog",
    "161": "knee",
    "253": "shark",
    "336": "wristwatch",
    "260": "skull",
    "19": "bat",
    "188": "mouse",
    "332": "wheel",
    "111": "finger",
    "166": "leg",
    "252": "see saw",
    "248": "scissors",
    "90": "dog",
    "199": "onion",
    "86": "cup",
    "82": "crayon",
    "37": "bowtie",
    "40": "bread",
    "36": "bottlecap",
    "148": "hot air balloon",
    "35": "boomerang",
    "201": "owl",
    "96": "drill",
    "125": "frying pan",
    "243": "sailboat",
    "15": "baseball",
    "129": "goatee",
    "79": "couch",
    "262": "sleeping bag",
    "279": "star",
    "99": "dumbbell",
    "2": "ambulance",
    "44": "bucket",
    "317": "train",
    "42": "broccoli",
    "70": "circle",
    "264": "snail",
    "102": "elephant",
    "177": "marker",
    "281": "stereo",
    "220": "pillow",
    "298": "teapot",
    "285": "stove",
    "133": "guitar",
    "300": "telephone",
    "54": "camera",
    "267": "snowflake",
    "174": "lollipop",
    "234": "radio",
    "56": "campfire",
    "138": "hat",
    "116": "flamingo",
    "4": "animal migration",
    "104": "eraser",
    "13": "bandage",
    "200": "oven",
    "74": "coffee cup",
    "297": "table",
    "185": "mosquito",
    "71": "clarinet",
    "254": "sheep",
    "22": "bear",
    "1": "alarm clock",
    "165": "leaf",
    "153": "house plant",
    "3": "angel"
}